<svg width="50" height="48" viewBox="0 0 50 48" fill="none" xmlns="http://www.w3.org/2000/svg">
<path d="M25 0.666626C38.825 0.666626 50 11.0966 50 24C50 36.9033 38.825 47.3333 25 47.3333C11.175 47.3333 0 36.9033 0 24C0 11.0966 11.175 0.666626 25 0.666626ZM37.5 12.3333H31.25L28.75 9.99996H21.25L18.75 12.3333H12.5V17H37.5V12.3333ZM17.5 38H32.5C33.163 38 33.7989 37.7541 34.2678 37.3165C34.7366 36.879 35 36.2855 35 35.6666V19.3333H15V35.6666C15 36.2855 15.2634 36.879 15.7322 37.3165C16.2011 37.7541 16.837 38 17.5 38Z" fill="#D30000"/>
</svg>
